{
   "name": "io.universis.grades_sign",
  "description": "Grade signing application for UniverSIS",
  "path": "C:\\UniverSIS\\GradesDigitalSigning\\GradesDigitalSigning.exe",
  "type": "stdio",
  "allowed_origins": [
    "chrome-extension://knldjmfmopnpolahpmmgbagdohdnhkik/"
  ]
}
