{
   "name": "io.universis.grades_sign",
  "description": "Grade signing application for UniverSIS",
  "path": "C:\\UniverSIS\\GradesDigitalSigning\\GradesDigitalSigning.exe",
  "type": "stdio",
  "allowed_extensions": [ 
  	"a1cb2285-a83c-4dc0-a054-a667f895596a" 
  ]
}
